Nom attributaire*;Identification de l'attributaire*;Date de convention*;Référence de la décision;Identification du bénéficiaire*;Nom du bénéficiaire*;Objet de la convention;Montant total de la subvention*;Nature de la subvention*;Conditions de versement*;Date de versement;Numéro de référencement au répertoire des entreprises;Aide notifiée à l'Europe;Pourcentage du montant de la subvention attribué au bénéficiaire*;
MAA - Ministère de l'Agriculture et de l'Alimentation;11007001800012;2018-09-03;EJ 2102489936;78452331800011;ACTA;AAP RMT ERYTAGE;60000.0;Aide en numéraire;Echelonné;2018-09-03_2020-10-02;;Non;100.0;
MAA - Ministère de l'Agriculture et de l'Alimentation;11007001800012;2018-09-03;EJ 2102489934;30298415800022;Instituit de l'Elevage (IDELE);AAP RMT SPYCE;60000.0;Aide en numéraire;Echelonné;2018-09-03_2020-10-02;;Non;100.0;
MAA - Ministère de l'Agriculture et de l'Alimentation;11007001800012;2018-08-29;EJ 2102489940;30298415800022;Instituit de l'Elevage (IDELE);AAP RMT Prairies Demain;60000.0;Aide en numéraire;Echelonné;2018-08-29_2020-10-02;;Non;100.0;
MAA - Ministère de l'Agriculture et de l'Alimentation;11007001800012;2018-09-03;EJ 2102489941;77568577900313;ARVALIS;AAP RMT ELICITRA;120000.0;Aide en numéraire;Echelonné;2018-09-03_2020-10-02;;Non;100.0;
MAA - Ministère de l'Agriculture et de l'Alimentation;11007001800012;2018-08-13;EJ 2102480621;30298415800022;Instituit de l'Elevage (IDELE);AAP RMT Batiment d'Elevage de demain;60000.0;Aide en numéraire;Echelonné;2018-08-13_2020-10-02;;Non;100.0;
MAA - Ministère de l'Agriculture et de l'Alimentation;11007001800012;2018-08-13;EJ 2102480820;77568223000062;Réseau-Civam;AAP RMT Alimentation locale CACP;60000.0;Aide en numéraire;Echelonné;2018-08-13_2020-10-02;;Non;100.0;
MAA - Ministère de l'Agriculture et de l'Alimentation;11007001800012;2018-09-03;EJ 2102489937;78452331800011;ACTA;AAP RMT VEGDIAG;60000.0;Aide en numéraire;Echelonné;2018-09-03_2020-10-02;;Non;100.0;
MAA - Ministère de l'Agriculture et de l'Alimentation;11007001800012;2018-08-13;EJ 2102480622;78452331800011;ACTA;AAP RMT Biodiversité et agriculture;60000.0;Aide en numéraire;Echelonné;2018-08-13_2020-10-02;;Non;100.0;
MAA - Ministère de l'Agriculture et de l'Alimentation;11007001800012;2018-08-13;EJ 2102480624;78452331800011;ACTA;AAP RMT FLORAD;60000.0;Aide en numéraire;Echelonné;2018-08-13_2020-10-13;;Non;100.0;
MAA - Ministère de l'Agriculture et de l'Alimentation;11007001800012;2018-08-14;EJ 2102483084;77567579600012;CTIFL ;AAP ERA-NET DOMINO;57800.0;Aide en numéraire;Echelonné;2018-08-14_2020-10-02;;Non;100.0;
MAA - Ministère de l'Agriculture et de l'Alimentation;11007001800012;2018-08-13;EJ2102480625;78452331800011;ACTA;AAP ERA-NET MODELIA;60000.0;Aide en numéraire;Echelonné;2018-08-13_2020-10-02;;Non;100.0;
MAA - Ministère de l'Agriculture et de l'Alimentation;11007001800012;2018-08-13;EJ 2102480623;78452331800011;ACTA;AAP RMT QUASAPROVE;60000.0;Aide en numéraire;Echelonné;2018-08-13_2020-08-02;;Non;100.0;
MAA - Ministère de l'Agriculture et de l'Alimentation;11007001800012;2018-08-13;EJ 2102480626;78452331800011;ACTA;AAP RMT Fertilisation et enviroennement;60000.0;Aide en numéraire;Echelonné;2018-08-13_2020-10-02;;Non;100.0;
MAA - Ministère de l'Agriculture et de l'Alimentation;11007001800012;2018-09-03;EJ 2102489942;77568132300108;IFIP (Institut du porc);AAP RMT Economie des filières animales ;60000.0;Aide en numéraire;Echelonné;2018-09-03_2020-10-02;;Non;100.0;
MAA - Ministère de l'Agriculture et de l'Alimentation;11007001800012;2018-09-27;EJ 2102505627;38918745100023;Institut Technique agriculture Biologique (ITAB);AAP ERA-NET MIX-ENABLE;28000.0;Aide en numéraire;Echelonné;2018-09-27_2020-10-02;;Non;100.0;
MAA - Ministère de l'Agriculture et de l'Alimentation;11007001800012;2018-08-29;EJ 2102489939;77568132300108;IFIP (Institut du porc);AAP RMT Elevage et environnement;60000.0;Aide en numéraire;Echelonné;2018-08-29_2020-10-02;;Non;100.0;
MAA - Ministère de l'Agriculture et de l'Alimentation;11007001800012;2018-03-05;2102341075;53774037500028;L'ATELIER PAYSAN;un collectif en transitions pour le changement d'échelle de la démarche d'innovation ascendante et partenariale ;70000.0;Aide en numéraire;Echelonné;2018-03-08_2019-06-30;;Non;100.0;
MAA - Ministère de l'Agriculture et de l'Alimentation;11007001800012;2017-08-24;2102208632;40387593300026;AFP Association française de pastoralisme;programme développement agricole et rural 2017;35000.0;Aide en numéraire;Echelonné;2017-08-29_2018-10-30;;Non;100.0;
MAA - Ministère de l'Agriculture et de l'Alimentation;11007001800012;2017-09-21;2102225440;39069363800038;Fédération nationale accueil paysan;Programme développement agricole et rural 2017;60000.0;Aide en numéraire;Echelonné;2017-09-22_2018-10-30;;Non;100.0;
MAA - Ministère de l'Agriculture et de l'Alimentation;11007001800012;2017-10-17;2102228595;77568223000062;Réseau CIVAM;Programme développement agricole et rural 2017;679250.0;Aide en numéraire;Echelonné;2017-10-26_2018-10-30;;Non;100.0;
MAA - Ministère de l'Agriculture et de l'Alimentation;11007001800012;2018-05-25;2102389188;34990253600029;FADEAR - Fédération associative pour le développement de l'emploi agricole et rural;Programme développement agricole et rural 2018;130000.0;Aide en numéraire;Echelonné;2018-05-29_2019-10-30;;Non;100.0;
MAA - Ministère de l'Agriculture et de l'Alimentation;11007001800012;2018-06-01;2102389291;53774037500028;L'ATELIER PAYSAN;Programme développement agricole et rural 2018;80000.0;Aide en numéraire;Echelonné;2018-06-04_2019-10-30;;Non;100.0;
MAA - Ministère de l'Agriculture et de l'Alimentation;11007001800012;2018-05-30;2102399279;48050964500028;Terre de Liens;Capitaliser, mobiliser les collectivités et les citoyens pour contribuer aux politiques publiques;50000.0;Aide en numéraire;Echelonné;2018-06-01_3019-06-30;;Non;100.0;
MAA - Ministère de l'Agriculture et de l'Alimentation;11007001800012;2018-06-26;2102399276;78436202200021;ANSGAEC - Association Nationale des Sociétés et Groupements Agricoles pour l'Exploitation en Commun;Programme développement agricole et rural 2018;325000.0;Aide en numéraire;Echelonné;2018-07-02_2019-10-30;;Non;100.0;
MAA - Ministère de l'Agriculture et de l'Alimentation;11007001800012;2018-06-26;2102399275;41005119700037;TRAME - Tête des Réseaux pour l'Appui Méthodologique aux Entreprises ;Programme développement agricole et rural 2018;1825000.0;Aide en numéraire;Echelonné;2018-07-02_2019-10-30;;Non;100.0;
MAA - Ministère de l'Agriculture et de l'Alimentation;11007001800012;2018-05-30;2102399482;37839383900030;Inter-AFOCG - Inter associations de formation collective à la gestion;Programme développement agricole et rural 2018;174720.0;Aide en numéraire;Echelonné;2018-06-21_2019-10-30;;Non;100.0;
MAA - Ministère de l'Agriculture et de l'Alimentation;11007001800012;2018-09-07;2102488635;39400023600023;FNAB - Fédération nationale d'agriculture biologique;Programme développement agricole et rural 2018;700000.0;Aide en numéraire;Echelonné;2018-09-11_2019-10-30;;Non;100.0;
MAA - Ministère de l'Agriculture et de l'Alimentation;11007001800012;2018-05-28;2102399277;52202616000013;MIRAMAP - Mouvement Inter-Régional des AMAP;Programme développement agricole et rural 2018;65000.0;Aide en numéraire;Echelonné;2018-06-01_2019-10-30;;Non;100.0;
MAA - Ministère de l'Agriculture et de l'Alimentation;11007001800012;2018-08-08;2102465206;78426379000056;FNCUMA - Fédération nationale des CUMA;Programme développement agricole et rural 2018;900000.0;Aide en numéraire;Echelonné;2018-08-13_2019-10-30;;Non;100.0;
MAA - Ministère de l'Agriculture et de l'Alimentation;11007001800012;2018-06-26;2102404704;77568223000062;Réseau CIVAM;Programme développement agricole et rural 2018;715000.0;Aide en numéraire;Echelonné;2018-07-02_2019-10-30;;Non;100.0;
MAA - Ministère de l'Agriculture et de l'Alimentation;11007001800012;2018-09-18;2102499747;40387593300026;AFP -  Association française de pastoralisme;Programme développement agricole et rural 2018;35000.0;Aide en numéraire;Echelonné;2018-09-20_2019-10-30;;Non;100.0;
MAA - Ministère de l'Agriculture et de l'Alimentation;11007001800012;2018-09-19;2102499754;39069363800038;Fédération nationale accueil paysan;Programme développement agricole et rural 2018;60000.0;Aide en numéraire;Echelonné;2018-09-20_2019-10-30;;Non;100.0;
MAA - Ministère de l'Agriculture et de l'Alimentation;11007001800012;2018-05-30;2102399481;43226495000010;Service de Remplacement France;Programme développement agricole et rural 2018;50000.0;Aide en numéraire;Echelonné;2018-06-21_2019-10-30;;Non;100.0;
MAA - Ministère de l'Agriculture et de l'Alimentation;11007001800012;2018-06-20;2102389290;40921486300014;Solidarité Paysans;Programme développement agricole et rural 2018;198800.0;Aide en numéraire;Echelonné;2018-06-25_2019-10-30;;Non;100.0;
MAA - Ministère de l'Agriculture et de l'Alimentation;11007001800012;2018-05-29;2102399278;48050964500028;Terre de Liens;Programme développement agricole et rural 2018;200000.0;Aide en numéraire;Echelonné;2018-06-01_2019-10-30;;Non;100.0;
MAA - Ministère de l'Agriculture et de l'Alimentation;11007001800012;2017-08-25;2102197320;78417966500046;COOP DE FRANCE;programme développement agricole et rural 2017;2118500.0;Aide en numéraire;Echelonné;2017-09-22_2018-10-30;;Non;100.0;
MAA - Ministère de l'Agriculture et de l'Alimentation;11007001800012;2018-06-26;2102404707;78417966500046;COOP DE FRANCE;Programme développement agricole et rural 2018;2230000.0;Aide en numéraire;Echelonné;2018-07-02_2019-10-30;;Non;100.0;
MAA - Ministère de l'Agriculture et de l'Alimentation;11007001800012;2018-06-01;2102399480;41005119700037;TRAME - Tête des Réseaux pour l'Appui Méthodologique aux Entreprises;Coordination des ONVAR ;31000.0;Aide en numéraire;Echelonné;2018-06-21_2019-06-30;;Non;100.0;
MAA - Ministère de l'Agriculture et de l'Alimentation;11007001800012;2017-10-09;2102231731;78466354400053;CITEPA  (Centre technique d'études de la pollution atmostphérique) ;Nouveau format d'inventaire dédié au secteur AFOLU (agriculture, forêt et autres utilisations des terres);24931.0;Aide en numéraire;Echelonné;2017-10-30_2018-06-09;;Non;100.0;
MAA - Ministère de l'Agriculture et de l'Alimentation;11007001800012;2017-11-07;2102264955;42846892000031;COMIFER (Comité Français d'Étude et de Développement de la Fertilisation Raisonnée);animation des travaux techniques pour les référentiels de calcul de la dose d'azote;80000.0;Aide en numéraire;Echelonné;2017-11-09_2019-03-16;;Non;100.0;
MAA - Ministère de l'Agriculture et de l'Alimentation;11007001800012;2018-07-30;2102465209;78426330300017;FNE (France nature environnement);mise en oeuvre d'actions contribuant à la diffusion de l'agro-écologie et de la stratégie forestière;50000.0;Aide en numéraire;Echelonné;2018-08-02_2019-05-19;;Non;100.0;
MAA - Ministère de l'Agriculture et de l'Alimentation;11007001800012;2018-07-25;2102467500;48478113300034;IDDRI (Fondation Institut de recherche pour le développement durable et les relations internationales);La ferme France en 2050;25000.0;Aide en numéraire;Echelonné;2018-07-31_2019-10-25;;Non;100.0;
MAA - Ministère de l'Agriculture et de l'Alimentation;11007001800012;2018-07-10;2102455259;78484502600037;FPNRF (Fédération des parcs naturels régionaux de France);développement de l'agro-écologie à l'échelle territoriale pour répondre aux besoins de l'agriculture, des territoires et à une nécessaire transition écologique;48000.0;Aide en numéraire;Echelonné;2018-07-13_2019-03-30;;Non;100.0;
MAA - Ministère de l'Agriculture et de l'Alimentation;11007001800012;2018-10-24;2102518249;78466354400053;CITEPA  (Centre technique d'études de la pollution atmostphérique);Nouveau format d'inventaire dédié au secteur AFOLU (agriculture, forêt et autres utilisations des terres);23405.0;Aide en numéraire;Echelonné;2018-10-26_2019-08-10;;Non;100.0;
MAA - Ministère de l'Agriculture et de l'Alimentation;11007001800012;2018-05-24;2102400724;79853061400014;APAD  (Association pour la Promotion d'une Agriculture Durable);Agriculture de conservation des sols;69987.2;Aide en numéraire;Echelonné;2018-06-01_2019-06-01;;Non;100.0;
MAA - Ministère de l'Agriculture et de l'Alimentation;11007001800012;2017-12-19;2102296568;30298415800022;I.E. (IDELE) Institut de l'élevage;PDAR - Action d'Accompagnement - 2017- "SAFE et GGPR";113400.0;Aide en numéraire;Echelonné;2017-12-19_2020-12-19;;Non;100.0;
MAA - Ministère de l'Agriculture et de l'Alimentation;11007001800012;2017-10-31;2102264800;78452331800011;ACTA;PDAR - Action d'Accompagnement - 2017;360000.0;Aide en numéraire;Echelonné;2017-10-31_2020-10-31;;Non;100.0;
MAA - Ministère de l'Agriculture et de l'Alimentation;11007001800012;2017-09-13;2102201516;77587839000019;IFV - Institut Français de la vigne et du vin;Programme Développement Agricole et Rural 2017 - Action Thématiques Transversales - 2017 -Lutte contre le dépérissement du vignoble;600000.0;Aide en numéraire;Echelonné;2017-09-13_2020-09-13;;Non;100.0;
MAA - Ministère de l'Agriculture et de l'Alimentation;11007001800012;2017-09-07;2102195954;78452331800011;ACTA;Programme Développement Agricole et Rural 2017 - Action Thématiques Transversales - 2017;2233906.0;Aide en numéraire;Echelonné;2017-09-07_2020-09-07;;Non;100.0;
MAA - Ministère de l'Agriculture et de l'Alimentation;11007001800012;2017-09-05;2102195656;78452331800011;ACTA;PDAR - Action d'Accompagnement - 2017;110160.0;Aide en numéraire;Echelonné;2017-09-05_2020-09-05;;Non;100.0;
MAA - Ministère de l'Agriculture et de l'Alimentation;11007001800012;2017-09-11;2102193975;77567579600012;CTIFL - Centre Technique Interprofessionnel des Fruits et Legumes;Programme Développement Agricole et Rural 2017 - Institut Technique Agricole - 2017;2514053.0;Aide en numéraire;Echelonné;2017-09-11_2020-09-11;;Non;100.0;
MAA - Ministère de l'Agriculture et de l'Alimentation;11007001800012;2017-12-19;2102298569;32741031200026;UNILET;PDAR - Action d'Accompagnement - 2017;99120.0;Aide en numéraire;Echelonné;2017-12-19_2020-12-19;;Non;100.0;
MAA - Ministère de l'Agriculture et de l'Alimentation;11007001800012;2017-09-11;2102188186;30298415800022;I.E. (IDELE) Institut de l'élevage;Programme Développement Agricole et Rural 2017 - Action Thématiques Transversales - 2017;2457230.0;Aide en numéraire;Echelonné;2017-09-11_2020-09-11;;Non;100.0;
MAA - Ministère de l'Agriculture et de l'Alimentation;11007001800012;2017-11-03;2102233803;77567579600012;CTIFL - Centre Technique Interprofessionnel des Fruits et Legumes;PDAR - Action d'Accompagnement - 2017;1901629.0;Aide en numéraire;Echelonné;2017-11-03_2020-11-03;;Non;100.0;
MAA - Ministère de l'Agriculture et de l'Alimentation;11007001800012;2017-12-07;2102287641;77568577900313;ARVALIS;AAP Recherche Technologique (RT) 2017 - MULTIPASS;300000.0;Aide en numéraire;Echelonné;2017-12-07_2025-12-07;N°1714;Non;100.0;
MAA - Ministère de l'Agriculture et de l'Alimentation;11007001800012;2017-12-07;2102279176;38918745100023;ITAB - Institut Technique de l'Agriculture Biologique;AAP Innovation partenariat (IP) 2017 - CAPABLE;299572.0;Aide en numéraire;Echelonné;2017-12-07_2025-12-07;N°5733;Non;100.0;
MAA - Ministère de l'Agriculture et de l'Alimentation;11007001800012;2017-12-19;2102287645;77568223000062;Réseau CIVAM  (Ex: FNCIVAM);AAP RMT 2017 Alimentation locale CACP;60000.0;Aide en numéraire;Echelonné;2017-12-19_2020-12-19;;Non;100.0;
MAA - Ministère de l'Agriculture et de l'Alimentation;11007001800012;2017-08-02;2102149889;32038738900043;ITEIPMAI - Institut Technique Interprofessionnel des Plantes à arfun médicinales et aromatiques;Programme Développement Agricole et Rural 2017 - Institut Technique Agricole - 2017;666701.0;Aide en numéraire;Echelonné;2017-08-02_2020-08-02;;Non;100.0;
MAA - Ministère de l'Agriculture et de l'Alimentation;11007001800012;2017-08-04;2102149897;77568849200286;TERRES INOVIA;Programme Développement Agricole et Rural 2017 - Institut Technique Agricole - 2017;1130316.0;Aide en numéraire;Echelonné;2017-08-04_2020-08-04;;Non;100.0;
MAA - Ministère de l'Agriculture et de l'Alimentation;11007001800012;2017-12-18;2102287642;77568132300108;IFIP - Institut du porc;AAP RMT 2017 Economies des Filieres Animales;60000.0;Aide en numéraire;Echelonné;2017-12-18_2020-12-18;;Non;100.0;
MAA - Ministère de l'Agriculture et de l'Alimentation;11007001800012;2017-11-17;2102250791;77587839000019;IFV - Institut Français de la vigne et du vin;AAP Recherche Technologique (RT) 2017 - TechnoDOSE VITI;99840.0;Aide en numéraire;Echelonné;2017-11-17_2025-11-17;N°1721;Non;100.0;
MAA - Ministère de l'Agriculture et de l'Alimentation;11007001800012;2017-11-17;2102250805;77568849200286;TERRES INOVIA;AAP Innovation partenariat (IP) 2017 - OUTILLAGE;444396.0;Aide en numéraire;Echelonné;2017-11-17_2025-11-17;N°5717;Non;100.0;
MAA - Ministère de l'Agriculture et de l'Alimentation;11007001800012;2017-11-29;2102269946;30298415800022;I.E. (IDELE) Institut de l'élevage;AAP RMT 2017 Bien être animal ;60000.0;Aide en numéraire;Echelonné;2017-11-29_2025-11-29;;Non;100.0;
MAA - Ministère de l'Agriculture et de l'Alimentation;11007001800012;2017-11-24;2102264741;32534654200153;ACTALIA;AAP Recherche Technologique (RT) 2017 - EMISSAGE;248117.0;Aide en numéraire;Echelonné;2017-11-24_2025-11-24;N°1710;Non;100.0;
MAA - Ministère de l'Agriculture et de l'Alimentation;11007001800012;2017-11-17;2102225197;30298415800022;I.E. (IDELE) Institut de l'élevage;AAP Recherche Technologique (RT) 2017 - BIOMARQ'LAIT;297859.0;Aide en numéraire;Echelonné;2017-11-17_2025-11-17;N°1726;Non;100.0;
MAA - Ministère de l'Agriculture et de l'Alimentation;11007001800012;2017-11-24;2102269873;38918745100023;ITAB - Institut Technique de l'Agriculture Biologique;AAP Innovation partenariat (IP) 2017 - COVALIENCE;494000.0;Aide en numéraire;Echelonné;2017-11-24_2025-11-24;N°5714;Non;100.0;
MAA - Ministère de l'Agriculture et de l'Alimentation;11007001800012;2017-09-21;2102158761;77568577900313;ARVALIS;Programme Développement Agricole et Rural 2017 - Institut Technique Agricole - 2017 / Protection Intégrée;3239778.0;Aide en numéraire;Echelonné;2017-09-21_2020-09-21;;Non;100.0;
MAA - Ministère de l'Agriculture et de l'Alimentation;11007001800012;2017-12-19;2102295956;77567579600012;CTIFL - Centre Technique Interprofessionnel des Fruits et Legumes;AAP Recherche Technologique (RT) 2017 - CRÉATIVE;99611.0;Aide en numéraire;Echelonné;2017-12-19_2025-11-29;N°1716;Non;100.0;
MAA - Ministère de l'Agriculture et de l'Alimentation;11007001800012;2017-11-24;2102269940;78452331800011;ACTA;AAP Recherche Technologique (RT) 2017 - LINK ' EXPE;100000.0;Aide en numéraire;Echelonné;2017-11-24_2025-11-24;N°1729;Non;100.0;
MAA - Ministère de l'Agriculture et de l'Alimentation;11007001800012;2017-12-04;2102276295;77568132300108;IFIP - Institut du porc;AAP RMT 2017 Elevages et Environnement;60000.0;Aide en numéraire;Echelonné;2017-12-04_2025-12-04;;Non;100.0;
MAA - Ministère de l'Agriculture et de l'Alimentation;11007001800012;2017-08-10;2102162525;33915568100036;ITAVI -Institut Technique de l'Aviculture;Programme Développement Agricole et Rural 2017 - Institut Technique Agricole - 2017;1499338.0;Aide en numéraire;Echelonné;2017-08-10_2020-08-10;;Non;100.0;
MAA - Ministère de l'Agriculture et de l'Alimentation;11007001800012;2017-12-04;2102276292;30298415800022;I.E. (IDELE) Institut de l'élevage;AAP Innovation partenariat (IP) 2017 - EFFI' VIANDE;492821.0;Aide en numéraire;Echelonné;2017-12-04_2025-12-04;N°5750;Non;100.0;
MAA - Ministère de l'Agriculture et de l'Alimentation;11007001800012;2017-12-04;2102275805;30298415800022;I.E. (IDELE) Institut de l'élevage;AAP Recherche Technologique (RT) 2017 - PILOTRAITE;299999.0;Aide en numéraire;Echelonné;2017-12-04_2025-12-04;N°1706;Non;100.0;
MAA - Ministère de l'Agriculture et de l'Alimentation;11007001800012;2017-08-04;2102158762;77568577900313;ARVALIS;Programme Développement Agricole et Rural 2017 - Institut Technique Agricole - 2017;6313700.0;Aide en numéraire;Echelonné;2017-08-02_2020-08-02;;Non;100.0;
MAA - Ministère de l'Agriculture et de l'Alimentation;11007001800012;2017-11-15;2102235146;30298415800022;I.E. (IDELE) Institut de l'élevage;AAP RMT 2017 Bâtiment de demain;60000.0;Aide en numéraire;Echelonné;2017-11-15_2020-11-15;;Non;100.0;
MAA - Ministère de l'Agriculture et de l'Alimentation;11007001800012;2017-11-15;2102241877;77568132300108;IFIP - Institut du porc;AAP RT 2017 - CleanR3;99874.0;Aide en numéraire;Echelonné;2017-11-15_2025-11-15;N°1711;Non;100.0;
MAA - Ministère de l'Agriculture et de l'Alimentation;11007001800012;2017-11-15;2102236939;30298415800022;I.E. (IDELE) Institut de l'élevage;AAP RMT 2017 Travail en élevage;60000.0;Aide en numéraire;Echelonné;2017-11-15_2020-11-15;;Non;100.0;
MAA - Ministère de l'Agriculture et de l'Alimentation;11007001800012;2017-11-15;2102254994;30298415800022;I.E. (IDELE) Institut de l'élevage;AAP Innovation partenariat (IP) 2017 - AMTRAV'OVIN;404194.0;Aide en numéraire;Echelonné;2017-11-15_2025-11-15;N°5744;Non;100.0;
MAA - Ministère de l'Agriculture et de l'Alimentation;11007001800012;2017-11-15;2102254995;30298415800022;I.E. (IDELE) Institut de l'élevage;AAP Innovation partenariat (IP) 2017 - ERADAL;395081.0;Aide en numéraire;Echelonné;2017-11-15_2025-11-15;N°5710;Non;100.0;
MAA - Ministère de l'Agriculture et de l'Alimentation;11007001800012;2017-11-15;2102253538;30298415800022;I.E. (IDELE) Institut de l'élevage;AAP RMT 2017 SPYCE;60000.0;Aide en numéraire;Echelonné;2017-11-15_2020-11-15;;Non;100.0;
MAA - Ministère de l'Agriculture et de l'Alimentation;11007001800012;2017-11-15;2102250476;33915568100036;ITAVI -Institut Technique de l'Aviculture;AAP RT 2017 - ChicK'Tip;298518.0;Aide en numéraire;Echelonné;2017-11-15_2025-11-15;N°1727;Non;100.0;
MAA - Ministère de l'Agriculture et de l'Alimentation;11007001800012;2017-11-15;2102250478;77587839000019;IFV - Institut Français de la vigne et du vin ;AAP Innovation partenariat (IP) 2017 - AGROECO PERENNES;463955.0;Aide en numéraire;Echelonné;2017-11-15_2025-11-15;N°5736;Non;100.0;
MAA - Ministère de l'Agriculture et de l'Alimentation;11007001800012;2017-11-15;2102236940;30298415800022;I.E. (IDELE) Institut de l'élevage;AAP RMT 2017 Prairies demain;60000.0;Aide en numéraire;Echelonné;2017-11-15_2020-11-15;;Non;100.0;
MAA - Ministère de l'Agriculture et de l'Alimentation;11007001800012;2017-11-17;2102250782;77587839000019;IFV - Institut Français de la vigne et du vin;AAP Recherche Technologique (RT) 2017 - NITROGENNES;268782.0;Aide en numéraire;Echelonné;2017-11-17_2025-11-17;N°1704;Non;100.0;
MAA - Ministère de l'Agriculture et de l'Alimentation;11007001800012;2017-09-05;2102195659;78452331800011;ACTA;RMT - 2017 - Fertilisisation et environnement;60000.0;Aide en numéraire;Echelonné;2017-09-05_2020-09-05;;Non;100.0;
MAA - Ministère de l'Agriculture et de l'Alimentation;11007001800012;2017-09-05;2102189877;78452331800011;ACTA;AAP-RMT-2017 FLORAD : gestion de la flore adventice;60000.0;Aide en numéraire;Echelonné;2017-09-05_2020-09-05;;Non;100.0;
MAA - Ministère de l'Agriculture et de l'Alimentation;11007001800012;2017-10-30;2102226886;51464257800017;CNAOL;AAP-RMT-2017 : Filières Fromagères valorisant leur terroir;60000.0;Aide en numéraire;Echelonné;2017-10-30_2020-10-30;;Non;100.0;
MAA - Ministère de l'Agriculture et de l'Alimentation;11007001800012;2017-09-12;2102196145;78452331800011;ACTA;AAP RMT 2017 -Biodiversité et agriculture;60000.0;Aide en numéraire;Echelonné;2017-09-12_2020-09-12;;Non;100.0;
MAA - Ministère de l'Agriculture et de l'Alimentation;11007001800012;2017-10-31;2102224005;78452331800011;ACTA;AAP-RMT-2017 QUASAPROVE;60000.0;Aide en numéraire;Echelonné;2017-10-31_2020-10-31;;Non;100.0;
MAA - Ministère de l'Agriculture et de l'Alimentation;11007001800012;2017-10-31;2102225636;78452331800011;ACTA;AAP RMT 2017 VEGDIAG;60000.0;Aide en numéraire;Echelonné;2017-10-31_2020-10-31;;Non;100.0;
MAA - Ministère de l'Agriculture et de l'Alimentation;11007001800012;2017-10-31;2102225635;78452331800011;ACTA;AAP-RMT-2017 MODELIA;60000.0;Aide en numéraire;Echelonné;2017-10-31_2020-10-31;;Non;100.0;
MAA - Ministère de l'Agriculture et de l'Alimentation;11007001800012;2017-12-12;2102295746;41491272500010;ASTREDHOR;Programme Développement Agricole et Rural 2017 - Institut Technique Agricole - 2017;818828.0;Aide en numéraire;Echelonné;2017-12-12_2020-12-12;;Non;100.0;
MAA - Ministère de l'Agriculture et de l'Alimentation;11007001800012;2017-10-05;2102220505;13000636400017;FranceAgriMer (FAM);FAM _ Lutte contre le dépérissement du vignoble;900000.0;Aide en numéraire;Echelonné;2017-08-28_2025-08-28;;Non;100.0;
MAA - Ministère de l'Agriculture et de l'Alimentation;11007001800012;2017-12-12;2102287638;13000636400017;FranceAgriMer (FAM);FAM _ Expérimentation Expérimentation et outils et méthodes;2903802.0;Aide en numéraire;Echelonné;2017-12-12_2025-12-12;;Non;100.0;
MAA - Ministère de l'Agriculture et de l'Alimentation;11007001800012;2017-09-27;2102211543;13000636400017;FranceAgriMer (FAM);FAM _ Expérimentation 2017 - Elaboration ;8699420.0;Aide en numéraire;Echelonné;2017-09-27_2025-09-30;;Non;100.0;
MAA - Ministère de l'Agriculture et de l'Alimentation;11007001800012;2018-07-30;2102442785;77568577900313;ARVALIS;Programme pluriannuel - Institut Technique Agricole_Vers des systèmes;6646000.0;Aide en numéraire;Echelonné;2018-07-30_2025-07-30;;Non;100.0;
MAA - Ministère de l'Agriculture et de l'Alimentation;11007001800012;2018-07-03;2102412175;77568577900313;ARVALIS;Programme pluriannuel - Institut Technique Agricole _Protection intégrée;3410293.0;Aide en numéraire;Echelonné;2018-07-30_2025-07-30;;Non;100.0;
MAA - Ministère de l'Agriculture et de l'Alimentation;11007001800012;2018-09-12;2102484102;41491272500010;ASTREDHOR;Programme pluriannuel - Institut Technique Agricole;861922.0;Aide en numéraire;Echelonné;2018-09-12_2025-12-12;;Non;100.0;
MAA - Ministère de l'Agriculture et de l'Alimentation;11007001800012;2018-06-21;2102418160;78452331800011;ACTA;Programme pluriannuel - Institut Technique Agricole;3030876.0;Aide en numéraire;Echelonné;2018-06-21_2025-06-21;;Non;100.0;
MAA - Ministère de l'Agriculture et de l'Alimentation;11007001800012;2018-06-21;2102426147;77567645500121;FN3PT - Fédération Nationale des Producteurs de Plants de Pommes de Terres;Programme pluriannuel - Institut Technique Agricole;138420.0;Aide en numéraire;Echelonné;2018-06-21_2025-06-21;;Non;100.0;
MAA - Ministère de l'Agriculture et de l'Alimentation;11007001800012;2018-08-10;2102466989;77587839000019;IFV _ Institut Français de la Vigne et du Vin;Programme pluriannuel - Institut Technique Agricole;4856230.0;Aide en numéraire;Echelonné;2018-08-10_2025-08-10;;Non;100.0;
MAA - Ministère de l'Agriculture et de l'Alimentation;11007001800012;2018-07-31;2102460387;77568132300108;IFIP - Institut du porc;Programme pluriannuel - Institut Technique Agricole;4404695.0;Aide en numéraire;Echelonné;2018-08-31_2025-08-31;;Non;100.0;
MAA - Ministère de l'Agriculture et de l'Alimentation;11007001800012;2018-07-06;2102416711;77568849200286;Terres INOVIA;Programme pluriannuel - Institut Technique Agricole;1149806.0;Aide en numéraire;Echelonné;2018-07-06_2025-07-06;;Non;100.0;
MAA - Ministère de l'Agriculture et de l'Alimentation;11007001800012;2018-07-23;2102410161;77567579600012;CTIFL;Programme pluriannuel - Institut Technique Agricole;2691489.0;Aide en numéraire;Echelonné;2018-07-23_2025-07-23;;Non;100.0;
MAA - Ministère de l'Agriculture et de l'Alimentation;11007001800012;2018-07-12;2102421901;38918745100023;ITAB;Programme pluriannuel - Institut Technique Agricole;1024952.0;Aide en numéraire;Echelonné;2018-07-12_2025-07-12;;Non;100.0;
MAA - Ministère de l'Agriculture et de l'Alimentation;11007001800012;2018-07-12;2102428927;77565742200041;IFPC;Programme pluriannuel - Institut Technique Agricole;351363.0;Aide en numéraire;Echelonné;2018-07-12_2025-07-12;;Non;100.0;
MAA - Ministère de l'Agriculture et de l'Alimentation;11007001800012;2018-07-30;2102427895;77587839000019;IFV _ Institut Français de la Vigne et du Vin;Programme pluriannuel - Action Thématiques Transversales_Lutte contre le dépérissement du vignoble;600000.0;Aide en numéraire;Echelonné;2018-07-30_2025-07-30;;Non;100.0;
MAA - Ministère de l'Agriculture et de l'Alimentation;11007001800012;2018-06-21;2102410159;30298415800022;Institut de l'Elevage (IDELE);Programme pluriannuel - Institut Technique Agricole_Socio-économique_Ruminants;2519911.0;Aide en numéraire;Echelonné;2018-06-21_2025-06-21;;Non;100.0;
MAA - Ministère de l'Agriculture et de l'Alimentation;11007001800012;2018-07-31;2102456991;30298415800022;Institut de l'Elevage (IDELE);Programme pluriannuel - Action Thématiques Transversales_REFAGRI-IT;2457230.0;Aide en numéraire;Echelonné;2018-07-31_2025-07-31;;Non;100.0;
MAA - Ministère de l'Agriculture et de l'Alimentation;11007001800012;2018-06-21;2102410158;30298415800022;Institut de l'Elevage (IDELE);Programme pluriannuel - Institut Technique Agricole_Technique_Ruminants;5718702.0;Aide en numéraire;Echelonné;2018-06-21_2025-06-21;;Non;100.0;
MAA - Ministère de l'Agriculture et de l'Alimentation;11007001800012;2018-06-19;2102410160;78485544700016;ITB - Institut Technique de la Bettrave;Programme pluriannuel - Institut Technique Agricole;535116.0;Aide en numéraire;Echelonné;2018-06-19_2025-06-19;;Non;100.0;
MAA - Ministère de l'Agriculture et de l'Alimentation;11007001800012;2018-07-06;2102416712;32038788900043;ITEIPMAI;Programme pluriannuel - Institut Technique Agricole;701790.0;Aide en numéraire;Echelonné;2018-07-06_2025-07-06;;Non;100.0;
MAA - Ministère de l'Agriculture et de l'Alimentation;11007001800012;2018-07-06;2102427907;33915568100036;ITAVI;Programme pluriannuel - Institut Technique Agricole;1578250.0;Aide en numéraire;Echelonné;2018-07-06_2025-07-06;;Non;100.0;
MAA - Ministère de l'Agriculture et de l'Alimentation;11007001800012;2018-10-03;2102505629;77567579600012;CTIFL;Programme d'Actions d'accompagnement;1901629.0;Aide en numéraire;Echelonné;2018-10-03_2025-10-03;;Non;100.0;
MAA - Ministère de l'Agriculture et de l'Alimentation;11007001800012;2018-10-24;EJ 2102518730;51464257800017;CNAOL;AAP RMT 2018 "Filières fromagères valorisant leur terroir";60000.0;Aide en numéraire;Echelonné;2018-10-24_2025-10-24;;Non;100.0;
MAA - Ministère de l'Agriculture et de l'Alimentation;11007001800012;2018-10-03;2102501358;78452331800011;ACTA;Programme pluriannuel - Action Thématiques Transversales;2228791.0;Aide en numéraire;Echelonné;2018-10-03_2025-10-03;;Non;100.0;
MAA - Ministère de l'Agriculture et de l'Alimentation;11007001800012;2018-10-05;EJ 2012509809;30298415800022;Institut de l'Elevage (IDELE);AAP RMT 2018 "Bien être Animal";60000.0;Aide en numéraire;Echelonné;2018-10-05_2025-12-05;;Non;100.0;
MAA - Ministère de l'Agriculture et de l'Alimentation;11007001800012;2018-10-25;EJ 2102514369;33915568100036;ITAVI;AAP IP N°18 AIP 5828 "PROSPER";448208.0;Aide en numéraire;Echelonné;2018-10-25_2025-10-25;;Non;100.0;
MAA - Ministère de l'Agriculture et de l'Alimentation;11007001800012;2018-10-17;EJ 2102514367;33915568100036;ITAVI;AAP RT N°18 ART 1830 "FACaDe";99938.0;Aide en numéraire;Echelonné;2018-10-17_2025-10-17;;Non;100.0;
MAA - Ministère de l'Agriculture et de l'Alimentation;11007001800012;2018-11-15;EJ 2102518898;33915568100036;ITAVI;AAP RT N°18 ART 1818 "Otop-3D";298073.0;Aide en numéraire;Echelonné;2018-11-15_2025-12-15;;Non;100.0;
MAA - Ministère de l'Agriculture et de l'Alimentation;11007001800012;2018-10-25;EJ 2102514659;33915568100036;ITAVI;AAP IP N°18 AIP 5832 "ADAPt";487850.0;Aide en numéraire;Echelonné;2018-10-25_2025-12-25;;Non;100.0;
MAA - Ministère de l'Agriculture et de l'Alimentation;11007001800012;2018-10-29;EJ 2102524767;78426379000056;FNCUMA;AAP RMT 2018 "AgroETICA";60000.0;Aide en numéraire;Echelonné;2018-10-29_2025-12-29;;Non;100.0;
MAA - Ministère de l'Agriculture et de l'Alimentation;11007001800012;2018-10-31;EJ 2102519004;77587839000019;IFV _ Institut Français de la Vigne et du Vin;AAP RT N°18 ART 1807 "PIGROSÉ";299509.0;Aide en numéraire;Echelonné;2018-10-31_2025-10-31;;Non;100.0;
MAA - Ministère de l'Agriculture et de l'Alimentation;11007001800012;2018-11-21;EJ 2102530165;30298415800022;Institut de l'Elevage (IDELE);AAP IP N°18 AIP 5835 "VALCABRI";497282.0;Aide en numéraire;Echelonné;2018-11-21_2025-11-21;;Non;100.0;
MAA - Ministère de l'Agriculture et de l'Alimentation;11007001800012;2018-10-31;EJ 2102518903;77568577900313;ARVALIS;AAP RT N°18 ART 1832 "E-BROILER TRACK";298508.0;Aide en numéraire;Echelonné;2018-10-31_2025-10-31;;Non;100.0;
MAA - Ministère de l'Agriculture et de l'Alimentation;11007001800012;2018-10-31;EJ 2102518900;30298415800022;Institut de l'Elevage (IDELE);AAP RT N°18 ART 1804 "COWPILOT";241208.0;Aide en numéraire;Echelonné;2018-10-31_2025-10-31;;Non;100.0;
MAA - Ministère de l'Agriculture et de l'Alimentation;11007001800012;2018-10-29;EJ 2102519005;30298415800022;Institut de l'Elevage (IDELE);AAP RMT 2018 "Travail en Elevage";60000.0;Aide en numéraire;Echelonné;2018-10-29_2025-10-29;;Non;100.0;
MAA - Ministère de l'Agriculture et de l'Alimentation;11007001800012;2018-11-20;EJ 2102532725;77568577900313;ARVALIS;AAP RT N°18 ART 1819 "J-DISTAS";299983.0;Aide en numéraire;Echelonné;2018-11-20_2025-11-20;;Non;100.0;
MAA - Ministère de l'Agriculture et de l'Alimentation;11007001800012;2018-10-31;EJ 2102518901;77568577900313;ARVALIS;AAP RT N°18 ART 1822 "LITERAL";300000.0;Aide en numéraire;Echelonné;2018-10-31_2025-12-31;;Non;100.0;
MAA - Ministère de l'Agriculture et de l'Alimentation;11007001800012;2018-11-21;EJ 21025434574;77567579600012;CTIFL;AAP IP 2018 N° 18 AIP 5860 "DS² DROZOPHILA SUZUKII";469098.0;Aide en numéraire;Echelonné;2018-11-21_2025-11-21;;Non;100.0;
MAA - Ministère de l'Agriculture et de l'Alimentation;11007001800012;2018-11-20;EJ 2102528505;77556345500044;BNIC - Bureau National Interprofessionnel du Cognac;AAP IP N°18 AIP 5842 "DOMECCO";322707.0;Aide en numéraire;Echelonné;2018-11-20_2025-11-20;;Non;100.0;
MAA - Ministère de l'Agriculture et de l'Alimentation;11007001800012;2018-11-29;EJ 2102545520;30298415800022;Institut de l'Elevage (IDELE);AAP RT 2018 N°18 ART 1808 "EMISLOBV";97445.0;Aide en numéraire;Echelonné;2018-11-29_2025-11-29;;Non;100.0;
MAA - Ministère de l'Agriculture et de l'Alimentation;11007001800012;2018-12-07;EJ 2102530166;30298415800022;Institut de l'Elevage (IDELE);AAP IP N°18 AIP 5845 "FASTOCHe";498615.0;Aide en numéraire;Echelonné;2018-12-07_2025-12-07;;Non;100.0;
MAA - Ministère de l'Agriculture et de l'Alimentation;11007001800012;2018-11-29;EJ 2102545520;38481111300016;Cerfrance Normandie Maine;AAP IP N°18 AIP 5857 "ENGAGED";202347.0;Aide en numéraire;Echelonné;2018-11-29_2025-11-29;;Non;100.0;
MAA - Ministère de l'Agriculture et de l'Alimentation;11007001800012;2018-11-15;EJ 2102524589;78452331800011;ACTA;AAP IP N°18 AIP 5849 "SYNERGIES";491237.0;Aide en numéraire;Echelonné;2018-11-15_2025-11-15;;Non;100.0;
MAA - Ministère de l'Agriculture et de l'Alimentation;11007001800012;2018-11-28;EJ 2102539935;41005119700037;TRAME;AAP IP N°18 AIP 5848 "LABPSE";378142.0;Aide en numéraire;Echelonné;2018-11-29_2025-11-29;;Non;100.0;
MAA - Ministère de l'Agriculture et de l'Alimentation;11007001800012;2018-11-21;EJ 2102534859;80093772400014;CERAQ;AAP IP N°18 AIP 5840 "ADAMOS";499457.0;Aide en numéraire;Echelonné;2018-11-21_2025-10-21;;Non;100.0;
MAA - Ministère de l'Agriculture et de l'Alimentation;11007001800012;2018-11-21;EJ 2102528497;78452331800011;ACTA;AAP RT 2018 N°18 ART 1803 "METEOPREC";299986.0;Aide en numéraire;Echelonné;2018-11-21_2025-11-21;;Non;100.0;
MAA - Ministère de l'Agriculture et de l'Alimentation;11007001800012;2018-11-21;EJ 2102528495;77567579600012;CTIFL;AAP RT 2018 N°18 ART 1812 "MIRAGE";276577.0;Aide en numéraire;Echelonné;2018-11-21_2025-11-21;;Non;100.0;
MAA - Ministère de l'Agriculture et de l'Alimentation;11007001800012;2018-11-21;2102528496;77587839000019;IFV - Institut Français de la Vigne et du Vin;AAP RT 2018 N°18 ART 1813 "OuïduV";298453.0;Aide en numéraire;Echelonné;2018-11-21_2025-11-21;;Non;100.0;
MAA - Ministère de l'Agriculture et de l'Alimentation;11007001800012;2018-12-05;EJ 2102575311;45049941300034;TRUST'ING;AAP ERA-NET N°18 ACO 040 "PROREFINE" ;65000.0;Aide en numéraire;Echelonné;2018-12-05_2025-12-05;;Non;100.0;
MAA - Ministère de l'Agriculture et de l'Alimentation;11007001800012;2018-11-09;EJ 2102535219;38133439000014;GRAB;AAP ERA-NET N°18 ACO 030 "GreenResilient";145000.0;Aide en numéraire;Echelonné;2018-11-09_2025-11-09;;Non;100.0;
MAA - Ministère de l'Agriculture et de l'Alimentation;11007001800012;2018-11-28;EJ 2102552124;38918745100023;ITAB;AAP IP 2018 N° 18 AIP 5866 "MMBio";499890.0;Aide en numéraire;Echelonné;2018-11-28_2025-11-28;;Non;100.0;